{
    "plugin": {
        "title": "Index Blueprint DB",
        "packageName": "peek_plugin_index_blueprint",
        "version": "0.0.0",
        "buildNumber": "#PLUGIN_BUILD#",
        "buildDate": "#BUILD_DATE#",
        "creator": "Synerty Pty Ltd",
        "website": "www.synerty.com"
    },
    "requiresServices": [
        "logic",
        "worker",
        "agent",
        "storage",
        "admin",
        "field",
        "office"
    ],
    "logic": {},
    "storage": {
        "alembicDir": "_private/alembic"
    },
    "admin": {
        "showHomeLink": true,
        "appDir": "_private/admin-app",
        "appModule": "index-blueprint.module#ThingIndexModule",
        "moduleDir": "plugin-module"
    },
    "field": {
        "cfgDir": "_private/both-cfg",
        "cfgModule": "index-blueprint-cfg.module#DocDBCfgModule",
        "showHomeLink": true,
        "appDir": "_private/both-app",
        "appModule": "index-blueprint.module#ThingIndexModule",
        "assetDir": "_private/both-assets",
        "icon": "/assets/peek_plugin_index_blueprint/icon.png",
        "moduleDir": "plugin-module",
        "rootServices": [
            {
                "file": "_private/IndexBlueprintTupleService",
                "class": "IndexBlueprintTupleService"
            },
            {
                "file": "_private/thing-index-loader/ThingIndexLoaderService",
                "class": "ThingIndexLoaderService",
                "persistent": true
            },
            {
                "file": "IndexBlueprintService",
                "class": "IndexBlueprintService"
            }
        ]
    },
    "office": {
        "cfgDir": "_private/both-cfg",
        "cfgModule": "index-blueprint-cfg.module#DocDBCfgModule",
        "showHomeLink": true,
        "appDir": "_private/both-app",
        "appModule": "index-blueprint.module#ThingIndexModule",
        "assetDir": "_private/both-assets",
        "icon": "/assets/peek_plugin_index_blueprint/icon.png",
        "moduleDir": "plugin-module",
        "rootServices": [
            {
                "file": "_private/IndexBlueprintTupleService",
                "class": "IndexBlueprintTupleService"
            },
            {
                "file": "_private/thing-index-loader/ThingIndexLoaderService",
                "class": "ThingIndexLoaderService",
                "persistent": true
            },
            {
                "file": "IndexBlueprintService",
                "class": "IndexBlueprintService"
            }
        ]
    }
}
